Unidad 1
…
datos=tibble(p=unif,N=N,benef=x)
datos

# A tibble: 1,500 × 3
        p     N benef
    <dbl> <dbl> <dbl>
 1 0.758      0   300
 2 0.874      1   -50
 3 0.537      0   300
 4 0.303      0   300
 5 0.782      0   300
 6 0.356      0   300
 7 0.829      1   -50
 8 0.0330     0   300
 9 0.311      0   300
10 0.517      0   300
# … with 1,490 more rows

#.............................
#(2) Simulación de un mes con condiciones
x=(unif<probacum[1])*300+(unif<probacum[2] & unif>probacum[1])*(-50)+
  (unif>probacum[2])*(-100)
N=(unif<probacum[1])*0+(unif<probacum[2] & unif>probacum[1])*(1)+
  (unif>probacum[2])*(2)
datos=tibble(p=unif,N=N,benef=x)
datos

# A tibble: 1,500 × 3
        p     N benef
    <dbl> <dbl> <dbl>
 1 0.758      0   300
 2 0.874      1   -50
 3 0.537      0   300
 4 0.303      0   300
 5 0.782      0   300
 6 0.356      0   300
 7 0.829      1   -50
 8 0.0330     0   300
 9 0.311      0   300
10 0.517      0   300
# … with 1,490 more rows

#.............................
#(3) Simulación de un mes con bucle
N=c() # nº piezas defectuosas en la caja
x=c() # beneficio de la caja

for(i in 1:ncajas_mes){
  N[i]=valores[min(which(probacum>=unif[i]))]
  x[i]=ifelse(N[i]==0,300,N[i]*(-50))
}

datos=tibble(p=unif,N=N,benef=x)
datos

# A tibble: 1,500 × 3
        p     N benef
    <dbl> <dbl> <dbl>
 1 0.758      0   300
 2 0.874      1   -50
 3 0.537      0   300
 4 0.303      0   300
 5 0.782      0   300
 6 0.356      0   300
 7 0.829      1   -50
 8 0.0330     0   300
 9 0.311      0   300
10 0.517      0   300
# … with 1,490 more rows
…
datos=tibble(p=unif,N=N,benef=x)
datos

# A tibble: 1,500 × 3
        p     N benef
    <dbl> <dbl> <dbl>
 1 0.212      0   300
 2 0.708      1   300
 3 0.282      0   300
 4 0.510      0   300
 5 0.483      0   300
 6 0.0782     0   300
 7 0.527      1   300
 8 0.159      0   300
 9 0.428      0   300
10 0.626      0   300
# … with 1,490 more rows
…
# (1) Simulación de clientes con árbol de probabilidad
nsim=1500
unif=runif(nsim)
probs=c(0.5,0.5*0.25,0.5*0.5,0.5*0.25)
probacum=cumsum(probs)
probacum

[1] 0.500 0.625 0.875 1.000

benef_cli=ifelse(unif<probacum[1],0,ifelse(unif<probacum[2],30,
                                            ifelse(unif<probacum[3],60,75)))
tipo_cli=ifelse(unif<probacum[1],"No compra","Compra")
datos=tibble(p=unif,tipo_cli=tipo_cli,benef=benef_cli);datos

# A tibble: 1,500 × 3
        p tipo_cli  benef
    <dbl> <chr>     <dbl>
 1 0.604  Compra       30
 2 0.145  No compra     0
 3 0.492  No compra     0
 4 0.737  Compra       60
 5 0.667  Compra       60
 6 0.0995 No compra     0
 7 0.292  No compra     0
 8 0.609  Compra       30
 9 0.609  Compra       30
10 0.0891 No compra     0
# … with 1,490 more rows
…
[1] 0.25 0.75 1.00

benef_cli=c()
for(i in 1:nsim){
  if(tipo_cli[i]=="No compra")
    benef_cli[i]=0
  else {
    p=runif(1)
    #benef_cli[i]=ifelse(p<=0.25,30,ifelse(p<=0.75,60,75))
    benef_cli[i]=beneficios[min(which(probacum>=p))]
  }
}
datos=tibble(p=unif,tipo_cli=tipo_cli,benef=benef_cli);datos

# A tibble: 1,500 × 3
         p tipo_cli  benef
     <dbl> <fct>     <dbl>
 1 0.300   No compra     0
 2 0.390   No compra     0
 3 0.248   No compra     0
 4 0.442   No compra     0
 5 0.802   Compra       60
 6 0.370   No compra     0
 7 0.144   No compra     0
 8 0.341   No compra     0
 9 0.0257  No compra     0
10 0.00118 No compra     0
# … with 1,490 more rows
…
nsim=5000
# tiempo hasta fallo de cada proceso en el ciclo
TA_c=rexp(nsim,lambda_c[1])
TB_c=rexp(nsim,lambda_c[2])
TC_c=rexp(nsim,lambda_c[3])
simulaciones=tibble(TA_c,TB_c,TC_c) 
# tiempo hasta fallo del sistema en el ciclo
simulaciones$T_c=apply(simulaciones,1,min)
# identificación de qué proceso genera el fallo
simulaciones$proc=apply(simulaciones,1,which.min)
simulaciones  

# A tibble: 5,000 × 5
    TA_c   TB_c   TC_c   T_c  proc
   <dbl>  <dbl>  <dbl> <dbl> <int>
 1 28.2   2.85  19.3   2.85      2
 2  1.74 24.8    2.23  1.74      1
 3  1.98  7.70   8.84  1.98      1
 4  2.88 11.7    4.83  2.88      1
 5  2.63 22.5    4.27  2.63      1
 6  7.98  7.70   3.05  3.05      3
 7  8.01  1.83   7.63  1.83      2
 8  4.36  0.435  8.48  0.435     2
 9  6.44 33.4    4.97  4.97      3
10 13.3   2.50   0.267 0.267     3
# … with 4,990 more rows
…
